{
	"name": "Categories for AnsPress",
	"description": "Add category support in AnsPress",
	"version": "2.0.0",
	"tested_up_to": "4.4",
	"updated": "",
	"licence": "GPL-3.0+",
	"licence_link": "http://www.gnu.org/licenses/gpl.txt",
	"text_domain": "categories_for_anspress",
	"languages": [],
	"author": "AnsPress Team",
	"download": {
		"stable":{
			"wp" : "https://downloads.wordpress.org/plugin/categories-for-anspress.zip",
			"github" : "https://github.com/anspress/anspress/archive/master.zip"
		},
		"dev":{
			"wp" : "https://downloads.wordpress.org/plugin/categories-for-anspress.zip",
			"github" : "https://github.com/anspress/anspress/archive/master.zip"
		}
	}
}